{
  "variables": {
    "aws_access_key": "{{env `AWS_ACCESS_KEY`}}",
    "aws_secret_key": "{{env `AWS_SECRET_KEY`}}",
    "vnc_pwd": "{{env `CM_VNC_PWD`}}",
    "gftp_pwd": "{{env `CM_GALAXY_FTP_PWD`}}",
    "image_name": "GVL 4.0.0 Image {{timestamp}}",
    "source_ami": "ami-b1eb9e8b",
    "instance_type": "m1.medium",
    "os_source_image": "d57696ba-5ed2-43fe-bf78-a587829973a9",
    "os_flavor": "1"
  },


  "builders": [
  {
    "type": "openstack",
    "openstack_provider": "Compute Service",
    "region": "Melbourne",
    "ssh_username": "ubuntu",
    "source_image": "{{user `os_source_image`}}",
    "flavor": "{{user `os_flavor`}}",
    "image_name": "{{user `image_name`}}",
    "security_groups": [ "default" ]
  },
  {
    "type": "amazon-ebs",
    "access_key": "{{user `aws_access_key`}}",
    "secret_key": "{{user `aws_secret_key`}}",
    "region": "ap-southeast-2",
    "ssh_username": "ubuntu",
    "ami_virtualization_type": "hvm",
    "ami_description": "{{user `image_name`}}",
    "ami_groups": [ "all" ],
    "ami_regions": [ "us-east-1" ],
    "source_ami": "{{user `source_ami`}}",
    "instance_type": "{{user `instance_type`}}",
    "ami_name": "{{user `image_name`}}",
    "ami_block_device_mappings": [ {
        "device_name": "/dev/sda1",
        "volume_size": 20,
        "delete_on_termination": true
    } ],
    "launch_block_device_mappings": [ {
        "device_name": "/dev/sda1",
        "volume_size": 20,
        "delete_on_termination": true
    } ]
  }
  ],
  "provisioners": [
  {
    "type": "shell",
    "inline": [
      "sleep 30",
      "sudo apt-get update",
      "sudo apt-get install -y python-pip python-dev build-essential",
      "sudo pip install --upgrade ansible"
    ]
  },
  {
    "type": "ansible-local",
    "playbook_file": "cloud.yml",
    "role_paths": [
      "roles/galaxyprojectdotorg.cloudman-image",
      "roles/galaxyprojectdotorg.cloudman-database",
      "roles/galaxyprojectdotorg.cloudman-galaxy-setup",
      "roles/galaxyprojectdotorg.galaxy-os",
      "roles/galaxyprojectdotorg.galaxy",
      "roles/galaxyprojectdotorg.galaxy-tools",
      "roles/galaxyprojectdotorg.trackster",
      "roles/smola.java",
      "roles/gvl.image",
      "roles/gvl.filesystem-presetup",
      "roles/gvl.filesystem"
    ],
    "extra_arguments": [
       "--extra-vars",
       "vnc_password='{{user `vnc_pwd`}}'",
       "--extra-vars",
       "psql_galaxyftp_password='{{user `gftp_pwd`}}'",
       "--tags",
       "gvl-image",
       "--extra-vars",
       "cleanup=no"
    ]
  },
  {
    "type": "ansible-local",
    "playbook_file": "cloud.yml",
    "role_paths": [
      "roles/galaxyprojectdotorg.cloudman-image",
      "roles/galaxyprojectdotorg.cloudman-database",
      "roles/galaxyprojectdotorg.cloudman-galaxy-setup",
      "roles/galaxyprojectdotorg.galaxy-os",
      "roles/galaxyprojectdotorg.galaxy",
      "roles/galaxyprojectdotorg.trackster",
      "roles/smola.java",
      "roles/gvl.image",
      "roles/gvl.filesystem-presetup",
      "roles/gvl.filesystem"
    ],
    "extra_arguments": [
       "--extra-vars",
       "psql_galaxyftp_password='{{user `gftp_pwd`}}'",
       "--tags",
       "gvl-fs"
    ]
  },
  {
    "type": "ansible-local",
    "playbook_file": "cloud.yml",
    "extra_arguments": [
       "--extra-vars",
       "psql_galaxyftp_password='{{user `gftp_pwd`}}'",
       "--extra-vars",
       "only_cleanup=yes"
    ]
  }
  ]
}